Are we more civilized today?
…
Start a ggplot plotting midyear on x axis and duration on y
axis

Try geom_smooth() for geometry

Provide meaningful labels and a title

How would you characterize the trend compared to the homicides
above?

kings <- read_csv("/Users/anneaslai-sorensen/Documents/Historie AU/2. Semester/Digitale arkiver og metoder/WEEK 12/Kongerækken.csv")
kings

## # A tibble: 55 × 5
##    name               `birth year` `death year` `start of reign` `end of reign`
##    <chr>                     <dbl>        <dbl>            <dbl>          <dbl>
##  1 gorm_den_gamle              908          958              936            958
##  2 harald_1_blåtand             NA          987               NA             NA
##  3 svend_1_tveskæg              NA         1014              980           1014
##  4 harald_2                     NA           NA             1014           1018
##  5 knud_1_den_store            995         1035             1018           1035
##  6 hardeknud                  1020         1042             1035           1042
##  7 magnus_den_gode            1024         1047             1042           1047
##  8 svend_2_estridsen            NA         1076             1047           1074
##  9 harald_3_hen                 NA         1080             1074           1080
## 10 knud_2_den_hellige           NA         1086             1080           1086
## # ℹ 45 more rows
…
